1 4
2 10 4 5 2 10 4 5 2 10 4 5 2 10 4 5 2 10 4 5 2 10 4 5 2 10 4 5 2 10 4 5 2 10 4 5 2 10 4 5 2 10 4 5 2 10 4 5 2 10 4 5 2 10 4 5 2 10 4 5 2 10 4 5 2 10 4 5 2 10 4 5 2 10 4 5 2 10 4 5 2 10 4 5 2 10 4 5 2 10 4 5 2 10 4 5 2 10 4 5 2 10 4 5 2 10 4 5 2 10 4 5 2 10 4 5 2 10 4 5 2 10 4 5 2 10 4 5 2 10 4 5 2 10 4 5 2 10 4 5 2 10 4 5 2 10 4 5 2 10 4 5 2 10 4 5 2 10 4 5 2 10 4 5 2 10 4 5 2 10 4 5 2 10 4 5 2 10 4 5 2 10 4 5 2 10 4 5 2 10 4 5 2 10 4 5 2 10 4 5 2 10 4 5 2 10 4 5 2 10 4 5 2 10 4 5 2 10 4 5 2 10 4 5 2 10 4 5 2 10 4 5 2 10 4 5 2 10 4 5 2 10 4 5 2 10 4 5 2 10 4 5 2 10 4 5 2 10 4 5 2 10 4 5 2 10 4 5 2 10 4 5 2 10 4 5 2 10 4 5 2 10 4 5 2 10 4 5 2 10 4 5 2 10 4 5 2 10 4 5 2 10 4 5 2 10 4 5 2 10 4 5 2 10 4 5 2 10 4 5 2 10 4 5 2 10 4 5 2 10 4 5 2 10 4 5 2 10 4 5 2 10 4 5 2 10 4 5 2 10 4 5 2 10 4 5 2 10 4 5 2 10 4 5 2 10 4 5 2 10 4 5 2 10 4 5 2 10 4 5 2 10 4 5 2 10 4 5 2 10 4 5 2 10 4 5 2 10 4 5 2 10 4 5 2 10 4 5 2 10 4 5 2 10 4 5 2 10 4 5 2 10 4 5 2 10 4 5 2 10 4 5 2 10 4 5 2 10 4 5 2 10 4 5 2 10 4 5 2 10 4 5 2 10 4 5 2 10 4 5 2 10 4 5 2 10 4 5 2 10 4 5 2 10 4 5 2 10 4 5 2 10 4 5 2 10 4 5 2 10 4 5 2 10 4 5 2 10 4 5 2 10 4 5 2 10 4 5 2 10 4 5 2 10 4 5 2 10 4 5 2 10 4 5 2 10 4 5 2 10 4 5 2 10 4 5 2 10 4 5 2 10 4 5 2 10 4 5 2 10 4 5 2 10 4 5 2 10 4 5 2 10 4 5 2 10 4 5 2 10 4 5 2 10 4 5 2 10 4 5 2 10 4 5 2 10 4 5 2 10 4 5 2 10 4 5 2 10 4 5 2 10 4 5 2 10 4 5 2 10 4 5 2 10 4 5 2 10 4 5 2 10 4 5 2 10 4 5 2 10 4 5 2 10 4 5 2 10 4 5 
3 65 11 10 3 65 11 10 3 65 11 10 3 65 11 10 3 65 11 10 3 65 11 10 3 65 11 10 3 65 11 10 3 65 11 10 3 65 11 10 3 65 11 10 3 65 11 10 3 65 11 10 3 65 11 10 3 65 11 10 3 65 11 10 3 65 11 10 3 65 11 10 3 65 11 10 3 65 11 10 3 65 11 10 3 65 11 10 3 65 11 10 3 65 11 10 3 65 11 10 3 65 11 10 3 65 11 10 3 65 11 10 3 65 11 10 3 65 11 10 3 65 11 10 3 65 11 10 3 65 11 10 3 65 11 10 3 65 11 10 3 65 11 10 3 65 11 10 3 65 11 10 3 65 11 10 3 65 11 10 3 65 11 10 3 65 11 10 3 65 11 10 3 65 11 10 3 65 11 10 3 65 11 10 3 65 11 10 3 65 11 10 3 65 11 10 3 65 11 10 3 65 11 10 3 65 11 10 3 65 11 10 3 65 11 10 3 65 11 10 3 65 11 10 3 65 11 10 3 65 11 10 3 65 11 10 3 65 11 10 3 65 11 10 3 65 11 10 3 65 11 10 3 65 11 10 3 65 11 10 3 65 11 10 3 65 11 10 3 65 11 10 3 65 11 10 3 65 11 10 3 65 11 10 3 65 11 10 3 65 11 10 3 65 11 10 3 65 11 10 3 65 11 10 3 65 11 10 3 65 11 10 3 65 11 10 3 65 11 10 3 65 11 10 3 65 11 10 3 65 11 10 3 65 11 10 3 65 11 10 3 65 11 10 3 65 11 10 3 65 11 10 3 65 11 10 3 65 11 10 3 65 11 10 3 65 11 10 3 65 11 10 3 65 11 10 3 65 11 10 3 65 11 10 3 65 11 10 3 65 11 10 3 65 11 10 3 65 11 10 3 65 11 10 3 65 11 10 3 65 11 10 3 65 11 10 3 65 11 10 3 65 11 10 3 65 11 10 3 65 11 10 3 65 11 10 3 65 11 10 3 65 11 10 3 65 11 10 3 65 11 10 3 65 11 10 3 65 11 10 3 65 11 10 3 65 11 10 3 65 11 10 3 65 11 10 3 65 11 10 3 65 11 10 3 65 11 10 3 65 11 10 3 65 11 10 3 65 11 10 3 65 11 10 3 65 11 10 3 65 11 10 3 65 11 10 3 65 11 10 3 65 11 10 3 65 11 10 3 65 11 10 3 65 11 10 3 65 11 10 3 65 11 10 3 65 11 10 3 65 11 10 3 65 11 10 3 65 11 10 3 65 11 10 3 65 11 10 3 65 11 10 3 65 11 10 3 65 11 10 3 65 11 10 3 65 11 10 3 65 11 10 3 65 11 10 3 65 11 10 3 65 11 10 3 65 11 10 3 65 11 10 3 65 11 10 3 65 11 10 3 65 11 10 3 65 11 10 3 65 11 10 3 65 11 10 3 65 11 10 
